{
    "bot" : {
        "nick":"KaosBot",
        "ident":"KaosBot",
        "realname":"KaosBot",
        "channels": ["#iwwe"]
    },

    "server" : {
        "address":"irc.axon.pw",
        "port":6697,
        "ssl": true,
        "type":"shadowircd"
    },

    "nickserv" : {
        "password" : "AzuritePass123"
    },

    "udp" : {
        "ip": "0.0.0.0",
        "port": 12347
    },

    "kapi" : {
        "url": "http://api.kaosnetworks.com",
        "key": "vTFG4jb52QSrvl5gJXmwwPGKpXAMisTGP5SDUiCXU7h6I0Avou"
    }

}
